{
    "object": {
        "0ef0" : {
            "display" : "ノードプロファイル",
            "EPC" : {
                "80" : {
                    "display" : "動作状態",
                    "type" : "unsigned char",
                    "length" : 1,
                    "selectable" : {
                        "30" : {
                            "display" : "動作中"
                        },
                        "31" : {
                            "display" : "未起動"
                        }
                    }
                },
                "82" : {
                    "display" : "Version情報",
                    "type" : "unsigned char",
                    "length" : 4
                },
                "89" : {
                    "display" : "異常内容",
                    "type" : "unsigned short",
                    "length" : 1
                },
                "bf" : {
                    "display" : "個体識別情報",
                    "type" : "unsigned short",
                    "length" : 1
                },
                "d3" : {
                    "display" : "自ノードインスタンス数",
                    "type" : "unsigned char",
                    "length" : 3
                },
                "d4" : {
                    "display" : "自ノードクラス数",
                    "type" : "unsigned char",
                    "length" : 2
                },
                "d5" : {
                    "display" : "インスタンスリスト通知",
                    "type" : "unsigned char",
                    "length" : 253
                },
                "d6" : {
                    "display" : "自ノードインスタンスリストS",
                    "type" : "unsigned char",
                    "length" : 253
                },
                "d7" : {
                    "display" : "自ノードクラスリストS",
                    "type" : "unsigned char",
                    "length" : 17
                }
            }
        },
        "0001" : {
            "display" : "ガス漏れセンサ"
        },
        "0002" : {
            "display" : "防犯センサ"
        },
        "0003" : {
            "display" : "非常ボタン"
        },
        "0004" : {
            "display" : "救急用センサ"
        },
        "0005" : {
            "display" : "地震センサ"
        },
        "0006" : {
            "display" : "漏電センサ"
        },
        "0007" : {
            "display" : "人体検知センサ"
        },
        "0008" : {
            "display" : "来客センサ"
        },
        "0009" : {
            "display" : "呼び出しセンサ"
        },
        "000a" : {
            "display" : "結露センサ"
        },
        "000b" : {
            "display" : "空気汚染センサ"
        },
        "000c" : {
            "display" : "酸素センサ"
        },
        "000d" : {
            "display" : "照度センサ"
        },
        "000e" : {
            "display" : "音センサ"
        },
        "000f" : {
            "display" : "投函センサ"
        },
        "0010" : {
            "display" : "重荷センサ"
        },
        "0011" : {
            "display" : "温度センサ"
        },
        "0012" : {
            "display" : "湿度センサ"
        },
        "0013" : {
            "display" : "雨センサ"
        },
        "0014" : {
            "display" : "水位センサ"
        },
        "0015" : {
            "display" : "風呂水位センサ"
        },
        "0016" : {
            "display" : "風呂湧き上がりセンサ"
        },
        "0017" : {
            "display" : "水漏れセンサ"
        },
        "0018" : {
            "display" : "水あふれセンサ"
        },
        "0019" : {
            "display" : "火災センサ"
        },
        "001a" : {
            "display" : "タバコ煙センサ"
        },
        "001b" : {
            "display" : "CO2センサ"
        },
        "001c" : {
            "display" : "ガスセンサ"
        },
        "001d" : {
            "display" : "VOCセンサ"
        },
        "001e" : {
            "display" : "差圧センサ"
        },
        "001f" : {
            "display" : "風速センサ"
        },
        "0020" : {
            "display" : "臭いセンサ"
        },
        "0021" : {
            "display" : "炎センサ"
        },
        "0022" : {
            "display" : "電力量センサ"
        },
        "0023" : {
            "display" : "電流量センサ"
        },
        "0024" : {
            "display" : "昼光センサ"
        },
        "0025" : {
            "display" : "水流量センサ"
        },
        "0026" : {
            "display" : "微動センサ"
        },
        "0027" : {
            "display" : "通過センサ"
        },
        "0028" : {
            "display" : "在床センサ"
        },
        "0029" : {
            "display" : "開閉センサ"
        },
        "002a" : {
            "display" : "活動量センサ"
        },
        "002b" : {
            "display" : "人体位置センサ"
        },
        "002c" : {
            "display" : "雪センサ"
        },
        "002d" : {
            "display" : "気圧センサ"
        },
        "0130" : {
            "display" : "家庭用エアコン"
        },
        "0131" : {
            "display" : "冷風機"
        },
        "0132" : {
            "display" : "扇風機"
        },
        "0133" : {
            "display" : "換気扇"
        },
        "0134" : {
            "display" : "空調換気扇"
        },
        "0135" : {
            "display" : "空気清浄器"
        },
        "0136" : {
            "display" : "冷風扇"
        },
        "0137" : {
            "display" : "サーキュレータ"
        },
        "0138" : {
            "display" : "除湿機"
        },
        "0139" : {
            "display" : "加湿器"
        },
        "013a" : {
            "display" : "天井扇"
        },
        "013b" : {
            "display" : "電気こたつ"
        },
        "013c" : {
            "display" : "電気あんか"
        },
        "013d" : {
            "display" : "電気毛布"
        },
        "013e" : {
            "display" : "ストーブ"
        },
        "013f" : {
            "display" : "パネルヒータ"
        },
        "0140" : {
            "display" : "電気カーペット"
        },
        "0141" : {
            "display" : "フロアヒータ"
        },
        "0142" : {
            "display" : "電気暖房器"
        },
        "0143" : {
            "display" : "ファンヒータ"
        },
        "0144" : {
            "display" : "充電器"
        },
        "0145" : {
            "display" : "業務用パッケージエアコン室内機"
        },
        "0146" : {
            "display" : "業務用パッケージエアコン室外機"
        },
        "0147" : {
            "display" : "業務用パッケージエアコン蓄熱ユニット"
        },
        "0148" : {
            "display" : "業務用ファンコイルユニット"
        },
        "0149" : {
            "display" : "業務用空調冷熱減(チラー)"
        },
        "0150" : {
            "display" : "業務用空調温熱源(ボイラー)"
        },
        "0151" : {
            "display" : "業務用空調VAV"
        },
        "0152" : {
            "display" : "業務用空調エアハンドリングユニット"
        },
        "0153" : {
            "display" : "ユニットクーラー"
        },
        "0154" : {
            "display" : "業務用コンデンシングユニット"
        },
        "0155" : {
            "display" : "電気蓄熱暖房器"
        },
        "0156" : {
            "display" : "業務用パッケージエアコン室内機"
        },
        "0157" : {
            "display" : "業務用パッケージエアコン室外機"
        },
        "0158" : {
            "display" : "業務用ガスヒートポンプエアコン室内機"
        },
        "0159" : {
            "display" : "業務用ガスヒートポンプエアコン室外機"
        },
        "0260" : {
            "display" : "電動ブラインド・日よけ"
        },
        "0261" : {
            "display" : "電動シャッター"
        },
        "0262" : {
            "display" : "電動カーテン"
        },
        "0263" : {
            "display" : "電動雨戸・シャッター"
        },
        "0264" : {
            "display" : "電動ゲート"
        },
        "0265" : {
            "display" : "電動窓"
        },
        "0266" : {
            "display" : "電動玄関ドア・引戸"
        },
        "0267" : {
            "display" : "散水器（庭用）"
        },
        "0268" : {
            "display" : "散水器（火災用）"
        },
        "0269" : {
            "display" : "噴水"
        },
        "026a" : {
            "display" : "瞬間湯沸器"
        },
        "026b" : {
            "display" : "電気温水器"
        },
        "026c" : {
            "display" : "太陽熱温水器"
        },
        "026d" : {
            "display" : "循環ポンプ"
        },
        "026e" : {
            "display" : "電気便座"
        },
        "026f" : {
            "display" : "電気錠"
        },
        "0270" : {
            "display" : "ガス元弁"
        },
        "0271" : {
            "display" : "ホームサウナ"
        },
        "0272" : {
            "display" : "瞬間式給湯器"
        },
        "0273" : {
            "display" : "浴室暖房乾燥機"
        },
        "0274" : {
            "display" : "ホームエレベータ"
        },
        "0275" : {
            "display" : "電動間仕切り"
        },
        "0276" : {
            "display" : "水平トランスファ"
        },
        "0277" : {
            "display" : "電動物干し"
        },
        "0278" : {
            "display" : "浄化槽"
        },
        "0279" : {
            "display" : "住宅用太陽光発電"
        },
        "027a" : {
            "display" : "冷温水熱源機"
        },
        "027b" : {
            "display" : "床暖房"
        },
        "027c" : {
            "display" : "燃料電池"
        },
        "027d" : {
            "display" : "蓄電池"
        },
        "027e" : {
            "display" : "電気自動車充放電器"
        },
        "027f" : {
            "display" : "エンジンコージェネレーション"
        },
        "0280" : {
            "display" : "電力量メータ"
        },
        "0281" : {
            "display" : "水流量メータ"
        },
        "0282" : {
            "display" : "ガスメータ"
        },
        "0283" : {
            "display" : "LPガスメータ"
        },
        "0284" : {
            "display" : "時計"
        },
        "0285" : {
            "display" : "自動ドア"
        },
        "0286" : {
            "display" : "業務用エレベータ"
        },
        "0287" : {
            "display" : "分電盤メータリング"
        },
        "0288" : {
            "display" : "低圧スマート電力量メータ"
        },
        "0289" : {
            "display" : "スマートガスメータ"
        },
        "028a" : {
            "display" : "高圧スマート電力量メータ"
        },
        "028b" : {
            "display" : "灯油メータ"
        },
        "028c" : {
            "display" : "スマート灯油メータ"
        },
        "0290" : {
            "display" : "一般照明"
        },
        "0291" : {
            "display" : "単機能照明"
        },
        "0292" : {
            "display" : "固体発光光源用照明"
        },
        "0299" : {
            "display" : "非常照明"
        },
        "029d" : {
            "display" : "設備照明"
        },
        "02a0" : {
            "display" : "ブザー"
        },
        "02a1" : {
            "display" : "電気自動車充電器"
        },
        "02a2" : {
            "display" : "Household small wind turbine power generation"
        },
        "02a3" : {
            "display" : "照明システム"
        },
        "02a4" : {
            "display" : "拡張照明システム"
        },
        "02a5" : {
            "display" : "マルチ入力PCS"
        },
        "02a6" : {
            "display" : "ハイブリッド給湯機"
        },
        "03b0" : {
            "display" : "コーヒーメーカ"
        },
        "03b1" : {
            "display" : "コーヒーミル"
        },
        "03b2" : {
            "display" : "電気ポット"
        },
        "03b3" : {
            "display" : "電気こんろ"
        },
        "03b4" : {
            "display" : "トースタ"
        },
        "03b5" : {
            "display" : "ジューサ・ミキサ"
        },
        "03b6" : {
            "display" : "フードプロセッサ"
        },
        "03b7" : {
            "display" : "冷凍冷蔵庫"
        },
        "03b8" : {
            "display" : "オーブンレンジ"
        },
        "03b9" : {
            "display" : "クッキングヒータ"
        },
        "03ba" : {
            "display" : "オーブン"
        },
        "03bb" : {
            "display" : "炊飯器"
        },
        "03bc" : {
            "display" : "電子ジャー"
        },
        "03bd" : {
            "display" : "食器洗い機"
        },
        "03be" : {
            "display" : "食器乾燥機"
        },
        "03bf" : {
            "display" : "電気もちつき機"
        },
        "03c0" : {
            "display" : "保温機"
        },
        "03c1" : {
            "display" : "精米機"
        },
        "03c2" : {
            "display" : "自動製パン機"
        },
        "03c3" : {
            "display" : "スロークッカ"
        },
        "03c4" : {
            "display" : "電気漬物機"
        },
        "03c5" : {
            "display" : "洗濯機"
        },
        "03c6" : {
            "display" : "衣類乾燥機"
        },
        "03c7" : {
            "display" : "電気アイロン"
        },
        "03c8" : {
            "display" : "ズボンプレッサ"
        },
        "03c9" : {
            "display" : "ふとん乾燥機"
        },
        "03ca" : {
            "display" : "小物・くつ乾燥機"
        },
        "03cb" : {
            "display" : "電気掃除機"
        },
        "03cc" : {
            "display" : "ディスポーザ"
        },
        "03cd" : {
            "display" : "電気蚊取り機"
        },
        "03ce" : {
            "display" : "業務用ショーケース"
        },
        "03cf" : {
            "display" : "業務用冷蔵庫"
        },
        "03d0" : {
            "display" : "業務用ホットケース"
        },
        "03d1" : {
            "display" : "業務用フライヤー"
        },
        "03d2" : {
            "display" : "業務用電子レンジ"
        },
        "03d3" : {
            "display" : "洗濯乾燥機"
        },
        "03d4" : {
            "display" : "業務用ショーケース向け室外機"
        },
        "0401" : {
            "display" : "体重計"
        },
        "0402" : {
            "display" : "体温計"
        },
        "0403" : {
            "display" : "血圧計"
        },
        "0404" : {
            "display" : "血糖値計"
        },
        "0405" : {
            "display" : "体脂肪計"
        },
        "05fa" : {
            "display" : "並列処理併用型電力制御"
        },
        "05fb" : {
            "display" : "DRイベントコントローラ"
        },
        "05fc" : {
            "display" : "セキュア通信用共有鍵設定ノード"
        },
        "05fd" : {
            "display" : "スイッチ(JEMA/HA端子対応)"
        },
        "05fe" : {
            "display" : "携帯端末"
        },
        "05ff" : {
            "display" : "コントローラ"
        },
        "0601" : {
            "display" : "ディスプレー"
        },
        "0602" : {
            "display" : "テレビ"
        },
        "0603" : {
            "display" : "オーディオ"
        },
        "0604" : {
            "display" : "ネットワークカメラ"
        }
    },
    "common" : {
        "machine" : {
            "EPC" : {
                "80" : {
                    "display" : "動作状態",
                    "type" : "unsigned char",
                    "length" : 1,
                    "selectable" : {
                        "30" : {
                            "display" : "動作中"
                        },
                        "31" : {
                            "display" : "未起動"
                        }
                    }
                },
                "81" : {
                    "display" : "設置場所",
                    "type" : "unsigned char",
                    "length" : [1, 17]
                },
                "82" : {
                    "display" : "規格Version情報",
                    "type" : "unsigned char",
                    "length" : 4
                },
                "83" : {
                    "display" : "識別番号",
                    "type" : "unsigned char",
                    "length" : [9, 17]
                },
                "84" : {
                    "display" : "瞬時消費電力計測値",
                    "type" : "unsigned short",
                    "length" : 1
                },
                "85" : {
                    "display" : "積算消費電力計測値",
                    "type" : "unsigned long",
                    "length" : 1
                },
                "86" : {
                    "display" : "メーカー異常コード",
                    "type" :"unsigned char",
                    "length" : 225
                },
                "87" : {
                    "display" : "電流制限設定",
                    "type" :"unsigned char",
                    "length" : 1
                },
                "88" : {
                    "display" : "異常発生状態",
                    "type" : "unsigned char",
                    "length" : 1
                },
                "89" : {
                    "display" : "異常内容",
                    "type" : "unsigned short",
                    "length" : 1
                },
                "8a" : {
                    "display" : "メーカコード",
                    "type" : "unsigned char",
                    "length" : 3
                },
                "8b" : {
                    "display" : "事業場コード",
                    "type" : "unsigned char",
                    "length" : 3
                },
                "8c" : {
                    "display" : "商品コード",
                    "type" :"unsigned char",
                    "length" : 12
                },
                "8d" : {
                    "display" : "製造番号",
                    "type" :"unsigned char",
                    "length" : 12
                },
                "8e" : {
                    "display" : "製造年月日",
                    "type" :"unsigned char",
                    "length" : 4
                },
                "8f" : {
                    "display" : "節電動作設定",
                    "type" :"unsigned char",
                    "length" : 1,
                    "selectable" : {
                        "41" : {
                            "display" : "節電動作中"
                        },
                        "42" : {
                            "display" : "通常動作中"
                        }
                    }
                },
                "93" : {
                    "display" : "遠隔動作設定",
                    "type" : "unsigned char",
                    "length" : 1,
                    "selectable" : {
                        "41" : {
                            "display" : "公衆回線未経由操作"
                        },
                        "42" : {
                            "display" : "公衆回線経由操作"
                        },
                        "61" : {
                            "display" : "公衆回線経由の操作不可"
                        },
                        "62" : {
                            "display" : "公衆回線経由の操作可能"
                        }
                    }
                },
                "97" : {
                    "display" : "現在時刻設定",
                    "type" : "unsigned char",
                    "length" : 2
                },
                "98" : {
                    "display" : "現在年月日設定",
                    "type" : "unsigned char",
                    "length" : 4
                },
                "99" : {
                    "display" : "電力制限設定",
                    "type" : "unsigned short",
                    "length" : 1
                },
                "9a" : {
                    "display" : "積算運転時間",
                    "type" : "unsigned char",
                    "length" : 5
                },
                "9b" : {
                    "display" : "SetMプロパティマップ",
                    "type" : "unsigned char",
                    "length" : 17
                },
                "9c" : {
                    "display" : "GetMプロパティマップ",
                    "type" : "unsigned char",
                    "length" : 17
                },
                "9d" : {
                    "display" : "状変アナウンスプロパティマップ",
                    "type" : "unsigned char",
                    "length" : 17
                },
                "9e" : {
                    "display" : "Setプロパティマップ",
                    "type" : "unsigned char",
                    "length" : 17
                },
                "9f" : {
                    "display" : "Getプロパティマップ",
                    "type" : "unsigned char",
                    "length" : 17
                }
            } 
        }
    }
}